
8/30/2021 4:16:24 PM: 
[-----------------------------Đăng nhập shopee ------------------------------]

8/30/2021 4:16:25 PM: 
Create session shopee

8/30/2021 4:16:41 PM: 
Begin login shopee

8/30/2021 4:16:41 PM: 
Get account shopee

8/30/2021 4:16:41 PM: 
Begin login bán hàng shopee

8/30/2021 4:16:42 PM: 
Cookie login bán hàng shopee (thành công)

8/30/2021 4:16:42 PM: 
[-----------------------------Đăng nhập shopee ------------------------------]

8/30/2021 4:16:42 PM: 
Create session shopee

8/30/2021 4:16:42 PM: 
[-----------------------------Thao tác lấy danh sách đơn hàng Ids------------------------------]

8/30/2021 4:16:42 PM: 
Begin get list by ids shopee

8/30/2021 4:16:43 PM: 
Kết quả: (thành công)

8/30/2021 4:16:43 PM: 
[-----------------------------Thao tác lấy danh sách đơn hàng chi tiết------------------------------]

8/30/2021 4:16:43 PM: 
Begin get list in detail shopee

8/30/2021 4:16:43 PM: 
Kết quả: (thành công)

8/30/2021 4:16:58 PM: 
Begin login shopee

8/30/2021 4:16:58 PM: 
Get account shopee

8/30/2021 4:16:58 PM: 
Begin login bán hàng shopee

8/30/2021 4:16:59 PM: 
Cookie login bán hàng shopee (thành công)

8/30/2021 4:17:37 PM: 
[-----------------------------Thao tác lấy danh sách đơn hàng Ids------------------------------]

8/30/2021 4:17:37 PM: 
Begin get list by ids shopee

8/30/2021 4:17:37 PM: 
Kết quả: (thành công)

8/30/2021 4:17:37 PM: 
[-----------------------------Thao tác lấy danh sách đơn hàng chi tiết------------------------------]

8/30/2021 4:17:37 PM: 
Begin get list in detail shopee

8/30/2021 4:17:37 PM: 
Kết quả: (thành công)

8/30/2021 4:17:40 PM: 
[-----------------------------Thao tác lấy 1 đơn hàng------------------------------]

8/30/2021 4:17:40 PM: 
1. Begin get one order in detail shopee

8/30/2021 4:17:41 PM: 
Kết quả bước 1: (thành công)

8/30/2021 4:17:41 PM: 
2. Begin get_package id shopee (lấy số vận chuyển)

8/30/2021 4:17:41 PM: 
Kết quả bước 2 (thành công):

8/30/2021 4:17:41 PM: 
3. Begin package_number id shopee (lấy mã vận đơn)

8/30/2021 4:17:41 PM: 
[-----------------------------Thao tác lấy thời gian vận chuyển đơn hàng------------------------------]

8/30/2021 4:17:41 PM: 
1. Begin get package number shopee

8/30/2021 4:17:41 PM: 
Kết quả bước 1 (thành công):

8/30/2021 4:17:41 PM: 
2. Begin get pickup shopee

8/30/2021 4:17:41 PM: 
Kết quả bước 2 (thành công):

8/30/2021 4:17:41 PM: 
3. Begin get address list shopee

8/30/2021 4:17:42 PM: 
Kết quả bước 3 (thành công):

8/30/2021 4:17:42 PM: 
4. Tạo tham số post get time slot shopee

8/30/2021 4:17:42 PM: 
 - order_id = 83235005281781 - address_id = 17768427 - channel_id = 50018

8/30/2021 4:17:42 PM: 
4.1. Begin get time shopee

8/30/2021 4:17:42 PM: 
Kết quả bước 4 (thành công):

8/30/2021 4:17:42 PM: 
Tham số post khởi tạo/ xác nhận đơn hàng: {"order_id":83235005281781,"package_number":"OFG83235005660789","remark":"","pickup_time":0,"pickup_address_id":17768427,"seller_real_name":"","shipping_mode":""}

8/30/2021 4:17:44 PM: 
[-----------------------------Thao tác lấy 1 đơn hàng------------------------------]

8/30/2021 4:17:44 PM: 
1. Begin get one order in detail shopee

8/30/2021 4:17:44 PM: 
Kết quả bước 1: (thành công)

8/30/2021 4:17:44 PM: 
2. Begin get_package id shopee (lấy số vận chuyển)

8/30/2021 4:17:44 PM: 
Kết quả bước 2 (thành công):

8/30/2021 4:17:44 PM: 
3. Begin package_number id shopee (lấy mã vận đơn)

8/30/2021 4:17:44 PM: 
[-----------------------------Thao tác lấy thời gian vận chuyển đơn hàng------------------------------]

8/30/2021 4:17:44 PM: 
1. Begin get package number shopee

8/30/2021 4:17:44 PM: 
Kết quả bước 1 (thành công):

8/30/2021 4:17:44 PM: 
2. Begin get pickup shopee

8/30/2021 4:17:44 PM: 
Kết quả bước 2 (thành công):

8/30/2021 4:17:44 PM: 
3. Begin get address list shopee

8/30/2021 4:17:45 PM: 
Kết quả bước 3 (thành công):

8/30/2021 4:17:45 PM: 
4. Tạo tham số post get time slot shopee

8/30/2021 4:17:45 PM: 
 - order_id = 83235005281781 - address_id = 17768427 - channel_id = 50018

8/30/2021 4:17:45 PM: 
4.1. Begin get time shopee

8/30/2021 4:17:45 PM: 
Kết quả bước 4 (thành công):

8/30/2021 4:17:45 PM: 
Tham số post khởi tạo/ xác nhận đơn hàng: {"order_id":83235005281781,"package_number":"OFG83235005660789","remark":"","pickup_time":0,"pickup_address_id":17768427,"seller_real_name":"","shipping_mode":""}

8/30/2021 4:19:47 PM: 
[-----------------------------Thao tác lấy 1 đơn hàng------------------------------]

8/30/2021 4:19:47 PM: 
1. Begin get one order in detail shopee

8/30/2021 4:19:47 PM: 
Kết quả bước 1: (thành công)

8/30/2021 4:19:47 PM: 
2. Begin get_package id shopee (lấy số vận chuyển)

8/30/2021 4:19:47 PM: 
Kết quả bước 2 (thành công):

8/30/2021 4:19:47 PM: 
3. Begin package_number id shopee (lấy mã vận đơn)

8/30/2021 4:19:47 PM: 
[-----------------------------Thao tác lấy thời gian vận chuyển đơn hàng------------------------------]

8/30/2021 4:19:47 PM: 
1. Begin get package number shopee

8/30/2021 4:19:47 PM: 
Kết quả bước 1 (thành công):

8/30/2021 4:19:47 PM: 
2. Begin get pickup shopee

8/30/2021 4:19:48 PM: 
Kết quả bước 2 (thành công):

8/30/2021 4:19:48 PM: 
3. Begin get address list shopee

8/30/2021 4:19:48 PM: 
Kết quả bước 3 (thành công):

8/30/2021 4:19:48 PM: 
4. Tạo tham số post get time slot shopee

8/30/2021 4:19:48 PM: 
 - order_id = 83235005281781 - address_id = 17768427 - channel_id = 50018

8/30/2021 4:19:48 PM: 
4.1. Begin get time shopee

8/30/2021 4:19:48 PM: 
Kết quả bước 4 (thành công):

8/30/2021 4:19:48 PM: 
Tham số post khởi tạo/ xác nhận đơn hàng: {"order_id":83235005281781,"package_number":"OFG83235005660789","remark":"","pickup_time":0,"pickup_address_id":17768427,"seller_real_name":"","shipping_mode":""}

8/30/2021 4:19:49 PM: 
[-----------------------------Thao tác lấy 1 đơn hàng------------------------------]

8/30/2021 4:19:49 PM: 
1. Begin get one order in detail shopee

8/30/2021 4:19:50 PM: 
Kết quả bước 1: (thành công)

8/30/2021 4:19:50 PM: 
2. Begin get_package id shopee (lấy số vận chuyển)

8/30/2021 4:19:50 PM: 
Kết quả bước 2 (thành công):

8/30/2021 4:19:50 PM: 
3. Begin package_number id shopee (lấy mã vận đơn)

8/30/2021 4:19:50 PM: 
[-----------------------------Thao tác lấy thời gian vận chuyển đơn hàng------------------------------]

8/30/2021 4:19:50 PM: 
1. Begin get package number shopee

8/30/2021 4:19:50 PM: 
Kết quả bước 1 (thành công):

8/30/2021 4:19:50 PM: 
2. Begin get pickup shopee

8/30/2021 4:19:50 PM: 
Kết quả bước 2 (thành công):

8/30/2021 4:19:50 PM: 
3. Begin get address list shopee

8/30/2021 4:19:51 PM: 
Kết quả bước 3 (thành công):

8/30/2021 4:19:51 PM: 
4. Tạo tham số post get time slot shopee

8/30/2021 4:19:51 PM: 
 - order_id = 83235005281781 - address_id = 17768427 - channel_id = 50018

8/30/2021 4:19:51 PM: 
4.1. Begin get time shopee

8/30/2021 4:19:51 PM: 
Kết quả bước 4 (thành công):

8/30/2021 4:19:51 PM: 
Tham số post khởi tạo/ xác nhận đơn hàng: {"order_id":83235005281781,"package_number":"OFG83235005660789","remark":"","pickup_time":0,"pickup_address_id":17768427,"seller_real_name":"","shipping_mode":""}

8/30/2021 4:21:36 PM: 
[-----------------------------Thao tác lấy 1 đơn hàng------------------------------]

8/30/2021 4:21:36 PM: 
1. Begin get one order in detail shopee

8/30/2021 4:21:36 PM: 
Kết quả bước 1: (thành công)

8/30/2021 4:21:36 PM: 
2. Begin get_package id shopee (lấy số vận chuyển)

8/30/2021 4:21:37 PM: 
Kết quả bước 2 (thành công):

8/30/2021 4:21:37 PM: 
3. Begin package_number id shopee (lấy mã vận đơn)

8/30/2021 4:21:37 PM: 
[-----------------------------Thao tác lấy thời gian vận chuyển đơn hàng------------------------------]

8/30/2021 4:21:37 PM: 
1. Begin get package number shopee

8/30/2021 4:21:37 PM: 
Kết quả bước 1 (thành công):

8/30/2021 4:21:37 PM: 
2. Begin get pickup shopee

8/30/2021 4:21:37 PM: 
Kết quả bước 2 (thành công):

8/30/2021 4:21:37 PM: 
3. Begin get address list shopee

8/30/2021 4:21:38 PM: 
Kết quả bước 3 (thành công):

8/30/2021 4:21:38 PM: 
4. Tạo tham số post get time slot shopee

8/30/2021 4:21:38 PM: 
 - order_id = 83235005281781 - address_id = 17768427 - channel_id = 50018

8/30/2021 4:21:38 PM: 
4.1. Begin get time shopee

8/30/2021 4:21:38 PM: 
Kết quả bước 4 (thành công):

8/30/2021 4:21:38 PM: 
Tham số post khởi tạo/ xác nhận đơn hàng: {"order_id":83235005281781,"package_number":"OFG83235005660789","remark":"","pickup_time":0,"pickup_address_id":17768427,"seller_real_name":"","shipping_mode":""}

8/30/2021 4:21:40 PM: 
[-----------------------------Thao tác lấy 1 đơn hàng------------------------------]

8/30/2021 4:21:40 PM: 
1. Begin get one order in detail shopee

8/30/2021 4:21:40 PM: 
Kết quả bước 1: (thành công)

8/30/2021 4:21:40 PM: 
2. Begin get_package id shopee (lấy số vận chuyển)

8/30/2021 4:21:40 PM: 
Kết quả bước 2 (thành công):

8/30/2021 4:21:40 PM: 
3. Begin package_number id shopee (lấy mã vận đơn)

8/30/2021 4:21:41 PM: 
[-----------------------------Thao tác lấy thời gian vận chuyển đơn hàng------------------------------]

8/30/2021 4:21:41 PM: 
1. Begin get package number shopee

8/30/2021 4:21:41 PM: 
Kết quả bước 1 (thành công):

8/30/2021 4:21:41 PM: 
2. Begin get pickup shopee

8/30/2021 4:21:41 PM: 
Kết quả bước 2 (thành công):

8/30/2021 4:21:41 PM: 
3. Begin get address list shopee

8/30/2021 4:21:41 PM: 
Kết quả bước 3 (thành công):

8/30/2021 4:21:41 PM: 
4. Tạo tham số post get time slot shopee

8/30/2021 4:21:41 PM: 
 - order_id = 83235005281781 - address_id = 17768427 - channel_id = 50018

8/30/2021 4:21:41 PM: 
4.1. Begin get time shopee

8/30/2021 4:21:41 PM: 
Kết quả bước 4 (thành công):

8/30/2021 4:21:41 PM: 
Tham số post khởi tạo/ xác nhận đơn hàng: {"order_id":83235005281781,"package_number":"OFG83235005660789","remark":"","pickup_time":0,"pickup_address_id":17768427,"seller_real_name":"","shipping_mode":""}

8/30/2021 4:22:08 PM: 
[-----------------------------Thao tác lấy 1 đơn hàng------------------------------]

8/30/2021 4:22:08 PM: 
1. Begin get one order in detail shopee

8/30/2021 4:22:08 PM: 
Kết quả bước 1: (thành công)

8/30/2021 4:22:08 PM: 
2. Begin get_package id shopee (lấy số vận chuyển)

8/30/2021 4:22:08 PM: 
Kết quả bước 2 (thành công):

8/30/2021 4:22:08 PM: 
3. Begin package_number id shopee (lấy mã vận đơn)

8/30/2021 4:22:08 PM: 
[-----------------------------Thao tác lấy thời gian vận chuyển đơn hàng------------------------------]

8/30/2021 4:22:08 PM: 
1. Begin get package number shopee

8/30/2021 4:22:08 PM: 
Kết quả bước 1 (thành công):

8/30/2021 4:22:08 PM: 
2. Begin get pickup shopee

8/30/2021 4:22:09 PM: 
Kết quả bước 2 (thành công):

8/30/2021 4:22:09 PM: 
3. Begin get address list shopee

8/30/2021 4:22:09 PM: 
Kết quả bước 3 (thành công):

8/30/2021 4:22:09 PM: 
4. Tạo tham số post get time slot shopee

8/30/2021 4:22:09 PM: 
 - order_id = 83235005281781 - address_id = 17768427 - channel_id = 50018

8/30/2021 4:22:09 PM: 
4.1. Begin get time shopee

8/30/2021 4:22:09 PM: 
Kết quả bước 4 (thành công):

8/30/2021 4:22:09 PM: 
Tham số post khởi tạo/ xác nhận đơn hàng: {"order_id":83235005281781,"package_number":"OFG83235005660789","remark":"","pickup_time":0,"pickup_address_id":17768427,"seller_real_name":"","shipping_mode":""}

8/30/2021 4:22:11 PM: 
[-----------------------------Thao tác lấy 1 đơn hàng------------------------------]

8/30/2021 4:22:11 PM: 
1. Begin get one order in detail shopee

8/30/2021 4:22:12 PM: 
Kết quả bước 1: (thành công)

8/30/2021 4:22:12 PM: 
2. Begin get_package id shopee (lấy số vận chuyển)

8/30/2021 4:22:12 PM: 
Kết quả bước 2 (thành công):

8/30/2021 4:22:12 PM: 
3. Begin package_number id shopee (lấy mã vận đơn)

8/30/2021 4:22:12 PM: 
[-----------------------------Thao tác lấy thời gian vận chuyển đơn hàng------------------------------]

8/30/2021 4:22:12 PM: 
1. Begin get package number shopee

8/30/2021 4:22:12 PM: 
Kết quả bước 1 (thành công):

8/30/2021 4:22:12 PM: 
2. Begin get pickup shopee

8/30/2021 4:22:13 PM: 
Kết quả bước 2 (thành công):

8/30/2021 4:22:13 PM: 
3. Begin get address list shopee

8/30/2021 4:22:13 PM: 
Kết quả bước 3 (thành công):

8/30/2021 4:22:13 PM: 
4. Tạo tham số post get time slot shopee

8/30/2021 4:22:13 PM: 
 - order_id = 83235005281781 - address_id = 17768427 - channel_id = 50018

8/30/2021 4:22:13 PM: 
4.1. Begin get time shopee

8/30/2021 4:22:13 PM: 
Kết quả bước 4 (thành công):

8/30/2021 4:22:13 PM: 
Tham số post khởi tạo/ xác nhận đơn hàng: {"order_id":83235005281781,"package_number":"OFG83235005660789","remark":"","pickup_time":0,"pickup_address_id":17768427,"seller_real_name":"","shipping_mode":""}

8/30/2021 4:22:37 PM: 
[-----------------------------Thao tác lấy 1 đơn hàng------------------------------]

8/30/2021 4:22:37 PM: 
1. Begin get one order in detail shopee

8/30/2021 4:22:37 PM: 
Kết quả bước 1: (thành công)

8/30/2021 4:22:37 PM: 
2. Begin get_package id shopee (lấy số vận chuyển)

8/30/2021 4:22:37 PM: 
Kết quả bước 2 (thành công):

8/30/2021 4:22:37 PM: 
3. Begin package_number id shopee (lấy mã vận đơn)

8/30/2021 4:22:37 PM: 
[-----------------------------Thao tác lấy thời gian vận chuyển đơn hàng------------------------------]

8/30/2021 4:22:37 PM: 
1. Begin get package number shopee

8/30/2021 4:22:38 PM: 
Kết quả bước 1 (thành công):

8/30/2021 4:22:38 PM: 
2. Begin get pickup shopee

8/30/2021 4:22:38 PM: 
Kết quả bước 2 (thành công):

8/30/2021 4:22:38 PM: 
3. Begin get address list shopee

8/30/2021 4:22:38 PM: 
Kết quả bước 3 (thành công):

8/30/2021 4:22:38 PM: 
4. Tạo tham số post get time slot shopee

8/30/2021 4:22:38 PM: 
 - order_id = 83235005281781 - address_id = 17768427 - channel_id = 50018

8/30/2021 4:22:38 PM: 
4.1. Begin get time shopee

8/30/2021 4:22:38 PM: 
Kết quả bước 4 (thành công):

8/30/2021 4:22:38 PM: 
Tham số post khởi tạo/ xác nhận đơn hàng: {"order_id":83235005281781,"package_number":"OFG83235005660789","remark":"","pickup_time":0,"pickup_address_id":17768427,"seller_real_name":"","shipping_mode":""}

8/30/2021 4:22:40 PM: 
[-----------------------------Thao tác lấy 1 đơn hàng------------------------------]

8/30/2021 4:22:40 PM: 
1. Begin get one order in detail shopee

8/30/2021 4:22:41 PM: 
Kết quả bước 1: (thành công)

8/30/2021 4:22:41 PM: 
2. Begin get_package id shopee (lấy số vận chuyển)

8/30/2021 4:22:41 PM: 
Kết quả bước 2 (thành công):

8/30/2021 4:22:41 PM: 
3. Begin package_number id shopee (lấy mã vận đơn)

8/30/2021 4:22:41 PM: 
[-----------------------------Thao tác lấy thời gian vận chuyển đơn hàng------------------------------]

8/30/2021 4:22:41 PM: 
1. Begin get package number shopee

8/30/2021 4:22:42 PM: 
Kết quả bước 1 (thành công):

8/30/2021 4:22:42 PM: 
2. Begin get pickup shopee

8/30/2021 4:22:42 PM: 
Kết quả bước 2 (thành công):

8/30/2021 4:22:42 PM: 
3. Begin get address list shopee

8/30/2021 4:22:42 PM: 
Kết quả bước 3 (thành công):

8/30/2021 4:22:42 PM: 
4. Tạo tham số post get time slot shopee

8/30/2021 4:22:42 PM: 
 - order_id = 83235005281781 - address_id = 17768427 - channel_id = 50018

8/30/2021 4:22:42 PM: 
4.1. Begin get time shopee

8/30/2021 4:22:42 PM: 
Kết quả bước 4 (thành công):

8/30/2021 4:22:42 PM: 
Tham số post khởi tạo/ xác nhận đơn hàng: {"order_id":83235005281781,"package_number":"OFG83235005660789","remark":"","pickup_time":0,"pickup_address_id":17768427,"seller_real_name":"","shipping_mode":""}

8/30/2021 4:55:09 PM: 
[-----------------------------Đăng nhập shopee ------------------------------]

8/30/2021 4:55:09 PM: 
Create session shopee

8/30/2021 4:55:26 PM: 
Begin login shopee

8/30/2021 4:55:26 PM: 
Get account shopee

8/30/2021 4:55:26 PM: 
Begin login bán hàng shopee

8/30/2021 4:55:26 PM: 
Cookie login bán hàng shopee (thành công)

8/30/2021 4:55:27 PM: 
[-----------------------------Đăng nhập shopee ------------------------------]

8/30/2021 4:55:27 PM: 
Create session shopee

8/30/2021 4:55:27 PM: 
[-----------------------------Thao tác lấy danh sách đơn hàng Ids------------------------------]

8/30/2021 4:55:27 PM: 
Begin get list by ids shopee

8/30/2021 4:55:27 PM: 
Kết quả: (thành công)

8/30/2021 4:55:27 PM: 
[-----------------------------Thao tác lấy danh sách đơn hàng chi tiết------------------------------]

8/30/2021 4:55:27 PM: 
Begin get list in detail shopee

8/30/2021 4:55:28 PM: 
Kết quả: (thành công)

8/30/2021 4:55:43 PM: 
Begin login shopee

8/30/2021 4:55:43 PM: 
Get account shopee

8/30/2021 4:55:43 PM: 
Begin login bán hàng shopee

8/30/2021 4:55:43 PM: 
Cookie login bán hàng shopee (thành công)

8/30/2021 4:55:56 PM: 
[-----------------------------Thao tác lấy danh sách đơn hàng Ids------------------------------]

8/30/2021 4:55:56 PM: 
Begin get list by ids shopee

8/30/2021 4:55:56 PM: 
Kết quả: (thành công)

8/30/2021 4:55:56 PM: 
[-----------------------------Thao tác lấy danh sách đơn hàng chi tiết------------------------------]

8/30/2021 4:55:56 PM: 
Begin get list in detail shopee

8/30/2021 4:55:56 PM: 
Kết quả: (thành công)

8/30/2021 4:58:53 PM: 
[-----------------------------Thao tác lấy 1 đơn hàng------------------------------]

8/30/2021 4:58:53 PM: 
1. Begin get one order in detail shopee

8/30/2021 4:58:54 PM: 
Kết quả bước 1: (thành công)

8/30/2021 4:58:54 PM: 
2. Begin get_package id shopee (lấy số vận chuyển)

8/30/2021 4:58:54 PM: 
Kết quả bước 2 (thành công):

8/30/2021 4:58:54 PM: 
3. Begin package_number id shopee (lấy mã vận đơn)

8/30/2021 4:58:54 PM: 
[-----------------------------Thao tác lấy thời gian vận chuyển đơn hàng------------------------------]

8/30/2021 4:58:54 PM: 
1. Begin get package number shopee

8/30/2021 4:58:54 PM: 
Kết quả bước 1 (thành công):

8/30/2021 4:58:54 PM: 
2. Begin get pickup shopee

8/30/2021 4:58:54 PM: 
Kết quả bước 2 (thành công):

8/30/2021 4:58:54 PM: 
3. Begin get address list shopee

8/30/2021 4:58:55 PM: 
Kết quả bước 3 (thành công):

8/30/2021 4:58:55 PM: 
4. Tạo tham số post get time slot shopee

8/30/2021 4:58:55 PM: 
 - order_id = 83234974392372 - address_id = 17768427 - channel_id = 50018

8/30/2021 4:58:55 PM: 
4.1. Begin get time shopee

8/30/2021 4:58:55 PM: 
Kết quả bước 4 (thành công):

8/30/2021 4:58:55 PM: 
Tham số post khởi tạo/ xác nhận đơn hàng: {"order_id":83234974392372,"package_number":"OFG83234974361322","remark":"","pickup_time":0,"pickup_address_id":17768427,"seller_real_name":"","shipping_mode":""}

8/30/2021 4:58:55 PM: 
[-----------------------------Thao tác lấy 1 đơn hàng------------------------------]

8/30/2021 4:58:55 PM: 
1. Begin get one order in detail shopee

8/30/2021 4:58:56 PM: 
Kết quả bước 1: (thành công)

8/30/2021 4:58:56 PM: 
2. Begin get_package id shopee (lấy số vận chuyển)

8/30/2021 4:58:56 PM: 
Kết quả bước 2 (thành công):

8/30/2021 4:58:56 PM: 
3. Begin package_number id shopee (lấy mã vận đơn)

8/30/2021 4:58:56 PM: 
[-----------------------------Thao tác lấy thời gian vận chuyển đơn hàng------------------------------]

8/30/2021 4:58:56 PM: 
1. Begin get package number shopee

8/30/2021 4:58:56 PM: 
Kết quả bước 1 (thành công):

8/30/2021 4:58:56 PM: 
2. Begin get pickup shopee

8/30/2021 4:58:56 PM: 
Kết quả bước 2 (thành công):

8/30/2021 4:58:56 PM: 
3. Begin get address list shopee

8/30/2021 4:58:56 PM: 
Kết quả bước 3 (thành công):

8/30/2021 4:58:56 PM: 
4. Tạo tham số post get time slot shopee

8/30/2021 4:58:56 PM: 
 - order_id = 83234974392372 - address_id = 17768427 - channel_id = 50018

8/30/2021 4:58:56 PM: 
4.1. Begin get time shopee

8/30/2021 4:58:57 PM: 
Kết quả bước 4 (thành công):

8/30/2021 4:58:57 PM: 
Tham số post khởi tạo/ xác nhận đơn hàng: {"order_id":83234974392372,"package_number":"OFG83234974361322","remark":"","pickup_time":0,"pickup_address_id":17768427,"seller_real_name":"","shipping_mode":""}

8/30/2021 5:03:58 PM: 
[-----------------------------Thao tác lấy 1 đơn hàng------------------------------]

8/30/2021 5:03:58 PM: 
1. Begin get one order in detail shopee

8/30/2021 5:03:59 PM: 
Kết quả bước 1: (thành công)

8/30/2021 5:03:59 PM: 
2. Begin get_package id shopee (lấy số vận chuyển)

8/30/2021 5:03:59 PM: 
Kết quả bước 2 (thành công):

8/30/2021 5:03:59 PM: 
3. Begin package_number id shopee (lấy mã vận đơn)

8/30/2021 5:03:59 PM: 
[-----------------------------Thao tác lấy thời gian vận chuyển đơn hàng------------------------------]

8/30/2021 5:03:59 PM: 
1. Begin get package number shopee

8/30/2021 5:04:00 PM: 
Kết quả bước 1 (thành công):

8/30/2021 5:04:00 PM: 
2. Begin get pickup shopee

8/30/2021 5:04:00 PM: 
Kết quả bước 2 (thành công):

8/30/2021 5:04:00 PM: 
3. Begin get address list shopee

8/30/2021 5:04:00 PM: 
Kết quả bước 3 (thành công):

8/30/2021 5:04:00 PM: 
4. Tạo tham số post get time slot shopee

8/30/2021 5:04:00 PM: 
 - order_id = 83234974392372 - address_id = 17768427 - channel_id = 50018

8/30/2021 5:04:00 PM: 
4.1. Begin get time shopee

8/30/2021 5:04:01 PM: 
Kết quả bước 4 (thành công):

8/30/2021 5:04:01 PM: 
Tham số post khởi tạo/ xác nhận đơn hàng: {"order_id":83234974392372,"package_number":"OFG83234974361322","remark":"","pickup_time":0,"pickup_address_id":17768427,"seller_real_name":"","shipping_mode":""}

8/30/2021 5:04:23 PM: 
[-----------------------------Thao tác lấy 1 đơn hàng------------------------------]

8/30/2021 5:04:23 PM: 
1. Begin get one order in detail shopee

8/30/2021 5:04:23 PM: 
Kết quả bước 1: (thành công)

8/30/2021 5:04:23 PM: 
2. Begin get_package id shopee (lấy số vận chuyển)

8/30/2021 5:04:23 PM: 
Kết quả bước 2 (thành công):

8/30/2021 5:04:23 PM: 
3. Begin package_number id shopee (lấy mã vận đơn)

8/30/2021 5:04:23 PM: 
[-----------------------------Thao tác lấy thời gian vận chuyển đơn hàng------------------------------]

8/30/2021 5:04:23 PM: 
1. Begin get package number shopee

8/30/2021 5:04:23 PM: 
Kết quả bước 1 (thành công):

8/30/2021 5:04:23 PM: 
2. Begin get pickup shopee

8/30/2021 5:04:24 PM: 
Kết quả bước 2 (thành công):

8/30/2021 5:04:24 PM: 
3. Begin get address list shopee

8/30/2021 5:04:24 PM: 
Kết quả bước 3 (thành công):

8/30/2021 5:04:24 PM: 
4. Tạo tham số post get time slot shopee

8/30/2021 5:04:24 PM: 
 - order_id = 83234974392372 - address_id = 17768427 - channel_id = 50018

8/30/2021 5:04:24 PM: 
4.1. Begin get time shopee

8/30/2021 5:04:24 PM: 
Kết quả bước 4 (thành công):

8/30/2021 5:04:24 PM: 
Tham số post khởi tạo/ xác nhận đơn hàng: {"order_id":83234974392372,"package_number":"OFG83234974361322","remark":"","pickup_time":0,"pickup_address_id":17768427,"seller_real_name":"","shipping_mode":""}

8/30/2021 5:05:08 PM: 
[-----------------------------Thao tác lấy 1 đơn hàng------------------------------]

8/30/2021 5:05:08 PM: 
1. Begin get one order in detail shopee

8/30/2021 5:05:08 PM: 
[-----------------------------Thao tác lấy 1 đơn hàng------------------------------]

8/30/2021 5:05:08 PM: 
1. Begin get one order in detail shopee

8/30/2021 5:05:08 PM: 
[-----------------------------Thao tác lấy 1 đơn hàng------------------------------]

8/30/2021 5:05:08 PM: 
1. Begin get one order in detail shopee

8/30/2021 5:05:08 PM: 
[-----------------------------Thao tác lấy thời gian vận chuyển đơn hàng------------------------------]

8/30/2021 5:05:08 PM: 
1. Begin get package number shopee

8/30/2021 5:05:08 PM: 
[-----------------------------Thao tác lấy thời gian vận chuyển đơn hàng------------------------------]

8/30/2021 5:05:08 PM: 
1. Begin get package number shopee

8/30/2021 5:05:08 PM: 
[-----------------------------Thao tác lấy thời gian vận chuyển đơn hàng------------------------------]

8/30/2021 5:05:08 PM: 
1. Begin get package number shopee

8/30/2021 5:05:08 PM: 
Result : (Không tìm thấy số package_number )parameter invalid

8/30/2021 5:05:08 PM: 
Result : (Không tìm thấy số package_number )parameter invalid

8/30/2021 5:05:08 PM: 
Result : (Không tìm thấy số package_number )parameter invalid

8/30/2021 5:07:31 PM: 
[-----------------------------Đăng nhập shopee ------------------------------]

8/30/2021 5:07:31 PM: 
Create session shopee

8/30/2021 5:07:47 PM: 
Begin login shopee

8/30/2021 5:07:47 PM: 
Get account shopee

8/30/2021 5:07:47 PM: 
Begin login bán hàng shopee

8/30/2021 5:07:48 PM: 
Cookie login bán hàng shopee (thành công)

8/30/2021 5:07:49 PM: 
[-----------------------------Đăng nhập shopee ------------------------------]

8/30/2021 5:07:49 PM: 
Create session shopee

8/30/2021 5:07:49 PM: 
[-----------------------------Thao tác lấy danh sách đơn hàng Ids------------------------------]

8/30/2021 5:07:49 PM: 
Begin get list by ids shopee

8/30/2021 5:07:50 PM: 
Kết quả: (thành công)

8/30/2021 5:07:50 PM: 
[-----------------------------Thao tác lấy danh sách đơn hàng chi tiết------------------------------]

8/30/2021 5:07:50 PM: 
Begin get list in detail shopee

8/30/2021 5:07:50 PM: 
Kết quả: (thành công)

8/30/2021 5:08:05 PM: 
Begin login shopee

8/30/2021 5:08:05 PM: 
Get account shopee

8/30/2021 5:08:05 PM: 
Begin login bán hàng shopee

8/30/2021 5:08:06 PM: 
Cookie login bán hàng shopee (thành công)

8/30/2021 5:08:08 PM: 
[-----------------------------Thao tác lấy danh sách đơn hàng Ids------------------------------]

8/30/2021 5:08:08 PM: 
Begin get list by ids shopee

8/30/2021 5:08:08 PM: 
Kết quả: (thành công)

8/30/2021 5:08:08 PM: 
[-----------------------------Thao tác lấy danh sách đơn hàng chi tiết------------------------------]

8/30/2021 5:08:08 PM: 
Begin get list in detail shopee

8/30/2021 5:08:08 PM: 
Kết quả: (thành công)

8/30/2021 5:08:10 PM: 
[-----------------------------Thao tác lấy 1 đơn hàng------------------------------]

8/30/2021 5:08:10 PM: 
1. Begin get one order in detail shopee

8/30/2021 5:08:11 PM: 
Kết quả bước 1: (thành công)

8/30/2021 5:08:11 PM: 
2. Begin get_package id shopee (lấy số vận chuyển)

8/30/2021 5:08:11 PM: 
Kết quả bước 2 (thành công):

8/30/2021 5:08:11 PM: 
3. Begin package_number id shopee (lấy mã vận đơn)

8/30/2021 5:08:11 PM: 
[-----------------------------Thao tác lấy thời gian vận chuyển đơn hàng------------------------------]

8/30/2021 5:08:11 PM: 
1. Begin get package number shopee

8/30/2021 5:08:11 PM: 
Kết quả bước 1 (thành công):

8/30/2021 5:08:11 PM: 
2. Begin get pickup shopee

8/30/2021 5:08:11 PM: 
Kết quả bước 2 (thành công):

8/30/2021 5:08:11 PM: 
3. Begin get address list shopee

8/30/2021 5:08:11 PM: 
Kết quả bước 3 (thành công):

8/30/2021 5:08:11 PM: 
4. Tạo tham số post get time slot shopee

8/30/2021 5:08:11 PM: 
 - order_id = 83235005281781 - address_id = 17768427 - channel_id = 50018

8/30/2021 5:08:11 PM: 
4.1. Begin get time shopee

8/30/2021 5:08:12 PM: 
Kết quả bước 4 (thành công):

8/30/2021 5:08:12 PM: 
Tham số post khởi tạo/ xác nhận đơn hàng: {"order_id":83235005281781,"package_number":"OFG83235005660789","remark":"","pickup_time":0,"pickup_address_id":17768427,"seller_real_name":"","shipping_mode":""}

8/30/2021 5:08:13 PM: 
[-----------------------------Thao tác lấy 1 đơn hàng------------------------------]

8/30/2021 5:08:13 PM: 
1. Begin get one order in detail shopee

8/30/2021 5:08:13 PM: 
Kết quả bước 1: (thành công)

8/30/2021 5:08:13 PM: 
2. Begin get_package id shopee (lấy số vận chuyển)

8/30/2021 5:08:13 PM: 
Kết quả bước 2 (thành công):

8/30/2021 5:08:13 PM: 
3. Begin package_number id shopee (lấy mã vận đơn)

8/30/2021 5:08:13 PM: 
[-----------------------------Thao tác lấy thời gian vận chuyển đơn hàng------------------------------]

8/30/2021 5:08:13 PM: 
1. Begin get package number shopee

8/30/2021 5:08:14 PM: 
Kết quả bước 1 (thành công):

8/30/2021 5:08:14 PM: 
2. Begin get pickup shopee

8/30/2021 5:08:14 PM: 
Kết quả bước 2 (thành công):

8/30/2021 5:08:14 PM: 
3. Begin get address list shopee

8/30/2021 5:08:14 PM: 
Kết quả bước 3 (thành công):

8/30/2021 5:08:14 PM: 
4. Tạo tham số post get time slot shopee

8/30/2021 5:08:14 PM: 
 - order_id = 83235005281781 - address_id = 17768427 - channel_id = 50018

8/30/2021 5:08:14 PM: 
4.1. Begin get time shopee

8/30/2021 5:08:14 PM: 
Kết quả bước 4 (thành công):

8/30/2021 5:08:14 PM: 
Tham số post khởi tạo/ xác nhận đơn hàng: {"order_id":83235005281781,"package_number":"OFG83235005660789","remark":"","pickup_time":0,"pickup_address_id":17768427,"seller_real_name":"","shipping_mode":""}

8/30/2021 5:08:24 PM: 
[-----------------------------Thao tác lấy 1 đơn hàng------------------------------]

8/30/2021 5:08:24 PM: 
[-----------------------------Thao tác lấy 1 đơn hàng------------------------------]

8/30/2021 5:08:24 PM: 
1. Begin get one order in detail shopee

8/30/2021 5:08:24 PM: 
1. Begin get one order in detail shopee

8/30/2021 5:08:24 PM: 
[-----------------------------Thao tác lấy 1 đơn hàng------------------------------]

8/30/2021 5:08:24 PM: 
1. Begin get one order in detail shopee

8/30/2021 5:08:24 PM: 
[-----------------------------Thao tác lấy thời gian vận chuyển đơn hàng------------------------------]

8/30/2021 5:08:24 PM: 
1. Begin get package number shopee

8/30/2021 5:08:24 PM: 
[-----------------------------Thao tác lấy thời gian vận chuyển đơn hàng------------------------------]

8/30/2021 5:08:24 PM: 
1. Begin get package number shopee

8/30/2021 5:08:24 PM: 
[-----------------------------Thao tác lấy thời gian vận chuyển đơn hàng------------------------------]

8/30/2021 5:08:24 PM: 
1. Begin get package number shopee

8/30/2021 5:08:24 PM: 
Result : (Không tìm thấy số package_number )parameter invalid

8/30/2021 5:08:24 PM: 
Result : (Không tìm thấy số package_number )parameter invalid

8/30/2021 5:08:24 PM: 
Result : (Không tìm thấy số package_number )parameter invalid

8/30/2021 5:12:03 PM: 
[-----------------------------Thao tác lấy 1 đơn hàng------------------------------]

8/30/2021 5:12:03 PM: 
1. Begin get one order in detail shopee

8/30/2021 5:14:08 PM: 
[-----------------------------Đăng nhập shopee ------------------------------]

8/30/2021 5:14:08 PM: 
Create session shopee

8/30/2021 5:14:24 PM: 
Begin login shopee

8/30/2021 5:14:24 PM: 
Get account shopee

8/30/2021 5:14:24 PM: 
Begin login bán hàng shopee

8/30/2021 5:14:25 PM: 
Cookie login bán hàng shopee (thành công)

8/30/2021 5:14:26 PM: 
[-----------------------------Đăng nhập shopee ------------------------------]

8/30/2021 5:14:26 PM: 
Create session shopee

8/30/2021 5:14:26 PM: 
[-----------------------------Thao tác lấy danh sách đơn hàng Ids------------------------------]

8/30/2021 5:14:26 PM: 
Begin get list by ids shopee

8/30/2021 5:14:26 PM: 
Kết quả: (thành công)

8/30/2021 5:14:26 PM: 
[-----------------------------Thao tác lấy danh sách đơn hàng chi tiết------------------------------]

8/30/2021 5:14:26 PM: 
Begin get list in detail shopee

8/30/2021 5:14:27 PM: 
Kết quả: (thành công)

8/30/2021 5:14:42 PM: 
Begin login shopee

8/30/2021 5:14:42 PM: 
Get account shopee

8/30/2021 5:14:43 PM: 
Begin login bán hàng shopee

8/30/2021 5:14:43 PM: 
Cookie login bán hàng shopee (thành công)

8/30/2021 5:14:47 PM: 
[-----------------------------Thao tác lấy danh sách đơn hàng Ids------------------------------]

8/30/2021 5:14:47 PM: 
Begin get list by ids shopee

8/30/2021 5:14:47 PM: 
Kết quả: (thành công)

8/30/2021 5:14:47 PM: 
[-----------------------------Thao tác lấy danh sách đơn hàng chi tiết------------------------------]

8/30/2021 5:14:47 PM: 
Begin get list in detail shopee

8/30/2021 5:14:47 PM: 
Kết quả: (thành công)

8/30/2021 5:14:58 PM: 
[-----------------------------Thao tác lấy 1 đơn hàng------------------------------]

8/30/2021 5:14:58 PM: 
1. Begin get one order in detail shopee

8/30/2021 5:14:58 PM: 
Kết quả bước 1: (thành công)

8/30/2021 5:14:58 PM: 
2. Begin get_package id shopee (lấy số vận chuyển)

8/30/2021 5:14:59 PM: 
Kết quả bước 2 (thành công):

8/30/2021 5:14:59 PM: 
3. Begin package_number id shopee (lấy mã vận đơn)

8/30/2021 5:14:59 PM: 
[-----------------------------Thao tác lấy thời gian vận chuyển đơn hàng------------------------------]

8/30/2021 5:14:59 PM: 
1. Begin get package number shopee

8/30/2021 5:14:59 PM: 
Kết quả bước 1 (thành công):

8/30/2021 5:14:59 PM: 
2. Begin get pickup shopee

8/30/2021 5:14:59 PM: 
Kết quả bước 2 (thành công):

8/30/2021 5:14:59 PM: 
3. Begin get address list shopee

8/30/2021 5:15:00 PM: 
Kết quả bước 3 (thành công):

8/30/2021 5:15:00 PM: 
4. Tạo tham số post get time slot shopee

8/30/2021 5:15:00 PM: 
 - order_id = 83235005281781 - address_id = 17768427 - channel_id = 50018

8/30/2021 5:15:00 PM: 
4.1. Begin get time shopee

8/30/2021 5:15:00 PM: 
Kết quả bước 4 (thành công):

8/30/2021 5:15:00 PM: 
Tham số post khởi tạo/ xác nhận đơn hàng: {"order_id":83235005281781,"package_number":"OFG83235005660789","remark":"","pickup_time":0,"pickup_address_id":17768427,"seller_real_name":"","shipping_mode":""}

8/30/2021 5:15:01 PM: 
[-----------------------------Thao tác lấy 1 đơn hàng------------------------------]

8/30/2021 5:15:01 PM: 
1. Begin get one order in detail shopee

8/30/2021 5:15:01 PM: 
Kết quả bước 1: (thành công)

8/30/2021 5:15:01 PM: 
2. Begin get_package id shopee (lấy số vận chuyển)

8/30/2021 5:15:01 PM: 
Kết quả bước 2 (thành công):

8/30/2021 5:15:01 PM: 
3. Begin package_number id shopee (lấy mã vận đơn)

8/30/2021 5:15:01 PM: 
[-----------------------------Thao tác lấy thời gian vận chuyển đơn hàng------------------------------]

8/30/2021 5:15:01 PM: 
1. Begin get package number shopee

8/30/2021 5:15:02 PM: 
Kết quả bước 1 (thành công):

8/30/2021 5:15:02 PM: 
2. Begin get pickup shopee

8/30/2021 5:15:02 PM: 
Kết quả bước 2 (thành công):

8/30/2021 5:15:02 PM: 
3. Begin get address list shopee

8/30/2021 5:15:02 PM: 
Kết quả bước 3 (thành công):

8/30/2021 5:15:02 PM: 
4. Tạo tham số post get time slot shopee

8/30/2021 5:15:02 PM: 
 - order_id = 83235005281781 - address_id = 17768427 - channel_id = 50018

8/30/2021 5:15:02 PM: 
4.1. Begin get time shopee

8/30/2021 5:15:02 PM: 
Kết quả bước 4 (thành công):

8/30/2021 5:15:02 PM: 
Tham số post khởi tạo/ xác nhận đơn hàng: {"order_id":83235005281781,"package_number":"OFG83235005660789","remark":"","pickup_time":0,"pickup_address_id":17768427,"seller_real_name":"","shipping_mode":""}

9/1/2021 9:14:24 AM: 
[-----------------------------Đăng nhập shopee ------------------------------]

9/1/2021 9:14:24 AM: 
Create session shopee

9/1/2021 9:14:40 AM: 
Begin login shopee

9/1/2021 9:14:40 AM: 
Get account shopee

9/1/2021 9:14:40 AM: 
Begin login bán hàng shopee

9/1/2021 9:14:41 AM: 
Cookie login bán hàng shopee (thành công)

9/1/2021 9:14:43 AM: 
[-----------------------------Đăng nhập shopee ------------------------------]

9/1/2021 9:14:43 AM: 
Create session shopee

9/1/2021 9:14:43 AM: 
[-----------------------------Thao tác lấy danh sách đơn hàng Ids------------------------------]

9/1/2021 9:14:43 AM: 
Begin get list by ids shopee

9/1/2021 9:14:43 AM: 
Kết quả: (thành công)

9/1/2021 9:14:43 AM: 
[-----------------------------Thao tác lấy danh sách đơn hàng chi tiết------------------------------]

9/1/2021 9:14:43 AM: 
Begin get list in detail shopee

9/1/2021 9:14:43 AM: 
Kết quả: (thành công)

9/1/2021 9:14:58 AM: 
Begin login shopee

9/1/2021 9:14:59 AM: 
Get account shopee

9/1/2021 9:14:59 AM: 
Begin login bán hàng shopee

9/1/2021 9:14:59 AM: 
Cookie login bán hàng shopee (thành công)

9/2/2021 3:10:29 PM: 
[-----------------------------Đăng nhập shopee ------------------------------]

9/2/2021 3:10:29 PM: 
Create session shopee

9/2/2021 3:10:45 PM: 
Begin login shopee

9/2/2021 3:10:45 PM: 
Get account shopee

9/2/2021 3:10:45 PM: 
Begin login bán hàng shopee

9/2/2021 3:10:46 PM: 
Cookie login bán hàng shopee (thành công)

9/2/2021 3:10:46 PM: 
[-----------------------------Đăng nhập shopee ------------------------------]

9/2/2021 3:10:46 PM: 
Create session shopee

9/2/2021 3:10:46 PM: 
[-----------------------------Thao tác lấy danh sách đơn hàng Ids------------------------------]

9/2/2021 3:10:46 PM: 
Begin get list by ids shopee

9/2/2021 3:10:47 PM: 
Kết quả: (thành công)

9/2/2021 3:10:47 PM: 
[-----------------------------Thao tác lấy danh sách đơn hàng chi tiết------------------------------]

9/2/2021 3:10:47 PM: 
Begin get list in detail shopee

9/2/2021 3:10:47 PM: 
Kết quả: (thành công)

9/2/2021 3:11:02 PM: 
Begin login shopee

9/2/2021 3:11:02 PM: 
Get account shopee

9/2/2021 3:11:02 PM: 
Begin login bán hàng shopee

9/2/2021 3:11:03 PM: 
Cookie login bán hàng shopee (thành công)

9/2/2021 3:11:10 PM: 
[-----------------------------Thao tác lấy danh sách đơn hàng Ids------------------------------]

9/2/2021 3:11:10 PM: 
Begin get list by ids shopee

9/2/2021 3:11:11 PM: 
Kết quả: (thành công)

9/2/2021 3:11:11 PM: 
[-----------------------------Thao tác lấy danh sách đơn hàng chi tiết------------------------------]

9/2/2021 3:11:11 PM: 
Begin get list in detail shopee

9/2/2021 3:11:11 PM: 
Kết quả: (thành công)

9/2/2021 3:11:14 PM: 
[-----------------------------Thao tác lấy 1 đơn hàng------------------------------]

9/2/2021 3:11:14 PM: 
1. Begin get one order in detail shopee

9/2/2021 3:11:14 PM: 
Kết quả bước 1: (thành công)

9/2/2021 3:11:14 PM: 
2. Begin get_package id shopee (lấy số vận chuyển)

9/2/2021 3:11:14 PM: 
Kết quả bước 2 (thành công):

9/2/2021 3:11:14 PM: 
3. Begin package_number id shopee (lấy mã vận đơn)

9/2/2021 3:11:14 PM: 
[-----------------------------Thao tác lấy thời gian vận chuyển đơn hàng------------------------------]

9/2/2021 3:11:14 PM: 
1. Begin get package number shopee

9/2/2021 3:11:15 PM: 
Kết quả bước 1 (thành công):

9/2/2021 3:11:15 PM: 
2. Begin get pickup shopee

9/2/2021 3:11:15 PM: 
Kết quả bước 2 (thành công):

9/2/2021 3:11:15 PM: 
3. Begin get address list shopee

9/2/2021 3:11:15 PM: 
Kết quả bước 3 (thành công):

9/2/2021 3:11:15 PM: 
4. Tạo tham số post get time slot shopee

9/2/2021 3:11:15 PM: 
 - order_id = 83235005281781 - address_id = 17768427 - channel_id = 50018

9/2/2021 3:11:15 PM: 
4.1. Begin get time shopee

9/2/2021 3:11:15 PM: 
Kết quả bước 4 (thành công):

9/2/2021 3:11:15 PM: 
Tham số post khởi tạo/ xác nhận đơn hàng: {"order_id":83235005281781,"package_number":"OFG83235005660789","remark":"","pickup_time":0,"pickup_address_id":17768427,"seller_real_name":"","shipping_mode":""}

9/2/2021 3:11:16 PM: 
[-----------------------------Thao tác lấy 1 đơn hàng------------------------------]

9/2/2021 3:11:16 PM: 
1. Begin get one order in detail shopee

9/2/2021 3:11:16 PM: 
Kết quả bước 1: (thành công)

9/2/2021 3:11:16 PM: 
2. Begin get_package id shopee (lấy số vận chuyển)

9/2/2021 3:11:16 PM: 
Kết quả bước 2 (thành công):

9/2/2021 3:11:16 PM: 
3. Begin package_number id shopee (lấy mã vận đơn)

9/2/2021 3:11:16 PM: 
[-----------------------------Thao tác lấy thời gian vận chuyển đơn hàng------------------------------]

9/2/2021 3:11:16 PM: 
1. Begin get package number shopee

9/2/2021 3:11:16 PM: 
Kết quả bước 1 (thành công):

9/2/2021 3:11:16 PM: 
2. Begin get pickup shopee

9/2/2021 3:11:17 PM: 
Kết quả bước 2 (thành công):

9/2/2021 3:11:17 PM: 
3. Begin get address list shopee

9/2/2021 3:11:17 PM: 
Kết quả bước 3 (thành công):

9/2/2021 3:11:17 PM: 
4. Tạo tham số post get time slot shopee

9/2/2021 3:11:17 PM: 
 - order_id = 83235005281781 - address_id = 17768427 - channel_id = 50018

9/2/2021 3:11:17 PM: 
4.1. Begin get time shopee

9/2/2021 3:11:17 PM: 
Kết quả bước 4 (thành công):

9/2/2021 3:11:17 PM: 
Tham số post khởi tạo/ xác nhận đơn hàng: {"order_id":83235005281781,"package_number":"OFG83235005660789","remark":"","pickup_time":0,"pickup_address_id":17768427,"seller_real_name":"","shipping_mode":""}

9/2/2021 3:56:38 PM: 
[-----------------------------Đăng nhập shopee ------------------------------]

9/2/2021 3:56:38 PM: 
Create session shopee

9/2/2021 3:56:54 PM: 
Begin login shopee

9/2/2021 3:56:54 PM: 
Get account shopee

9/2/2021 3:56:54 PM: 
Begin login bán hàng shopee

9/2/2021 3:56:55 PM: 
Cookie login bán hàng shopee (thành công)

9/2/2021 3:56:55 PM: 
[-----------------------------Đăng nhập shopee ------------------------------]

9/2/2021 3:56:55 PM: 
Create session shopee

9/2/2021 3:56:55 PM: 
[-----------------------------Thao tác lấy danh sách đơn hàng Ids------------------------------]

9/2/2021 3:56:55 PM: 
Begin get list by ids shopee

9/2/2021 3:56:55 PM: 
Kết quả: (thành công)

9/2/2021 3:57:11 PM: 
Begin login shopee

9/2/2021 3:57:11 PM: 
Get account shopee

9/2/2021 3:57:11 PM: 
Begin login bán hàng shopee

9/2/2021 3:57:11 PM: 
Cookie login bán hàng shopee (thành công)

9/2/2021 3:57:16 PM: 
[-----------------------------Thao tác lấy danh sách đơn hàng Ids------------------------------]

9/2/2021 3:57:16 PM: 
Begin get list by ids shopee

9/2/2021 3:57:16 PM: 
Kết quả: (thành công)

9/2/2021 3:57:22 PM: 
[-----------------------------Thao tác lấy danh sách đơn hàng Ids------------------------------]

9/2/2021 3:57:22 PM: 
Begin get list by ids shopee

9/2/2021 3:57:22 PM: 
Kết quả: (thành công)

9/2/2021 3:57:22 PM: 
[-----------------------------Thao tác lấy danh sách đơn hàng Ids------------------------------]

9/2/2021 3:57:22 PM: 
Begin get list by ids shopee

9/2/2021 3:57:23 PM: 
Kết quả: (thành công)

9/2/2021 3:57:23 PM: 
[-----------------------------Thao tác lấy danh sách đơn hàng Ids------------------------------]

9/2/2021 3:57:23 PM: 
Begin get list by ids shopee

9/2/2021 3:57:23 PM: 
Kết quả: (thành công)

9/2/2021 5:11:08 PM: 
[-----------------------------Đăng nhập shopee ------------------------------]

9/2/2021 5:11:08 PM: 
Create session shopee

9/2/2021 5:11:24 PM: 
Begin login shopee

9/2/2021 5:11:25 PM: 
Get account shopee

9/2/2021 5:11:25 PM: 
Begin login bán hàng shopee

9/2/2021 5:11:25 PM: 
Cookie login bán hàng shopee (thành công)

9/2/2021 5:11:26 PM: 
[-----------------------------Đăng nhập shopee ------------------------------]

9/2/2021 5:11:26 PM: 
Create session shopee

9/2/2021 5:11:26 PM: 
[-----------------------------Thao tác lấy danh sách đơn hàng Ids------------------------------]

9/2/2021 5:11:26 PM: 
Begin get list by ids shopee

9/2/2021 5:11:26 PM: 
Kết quả: (thành công)

9/2/2021 5:11:41 PM: 
Begin login shopee

9/2/2021 5:11:42 PM: 
Get account shopee

9/2/2021 5:11:42 PM: 
Begin login bán hàng shopee

9/2/2021 5:11:42 PM: 
Cookie login bán hàng shopee (thành công)

9/3/2021 12:04:33 PM: 
[-----------------------------Đăng nhập shopee ------------------------------]

9/3/2021 12:04:33 PM: 
Create session shopee

9/3/2021 12:04:49 PM: 
Begin login shopee

9/3/2021 12:04:49 PM: 
Get account shopee

9/3/2021 12:04:49 PM: 
Không đăng nhập được vui lòng kiểm tra lại thông tin đăng nhập !.
{"bff_meta":null,"error":19,"error_msg":"NOT_LOGIN","data":null}

9/3/2021 12:04:55 PM: 
[-----------------------------Đăng nhập shopee ------------------------------]

9/3/2021 12:04:55 PM: 
Create session shopee

9/3/2021 12:05:11 PM: 
Begin login shopee

9/3/2021 12:05:11 PM: 
Get account shopee

9/3/2021 12:05:11 PM: 
Không đăng nhập được vui lòng kiểm tra lại thông tin đăng nhập !.
{"bff_meta":null,"error":19,"error_msg":"NOT_LOGIN","data":null}

9/3/2021 12:14:21 PM: 
[-----------------------------Đăng nhập shopee ------------------------------]

9/3/2021 12:14:21 PM: 
Create session shopee

9/3/2021 12:14:37 PM: 
Begin login shopee

9/3/2021 12:14:37 PM: 
Get account shopee

9/3/2021 12:14:38 PM: 
Không đăng nhập được vui lòng kiểm tra lại thông tin đăng nhập !.
{"bff_meta":null,"error":19,"error_msg":"NOT_LOGIN","data":null}

9/3/2021 3:24:20 PM: 
[-----------------------------Đăng nhập shopee ------------------------------]

9/3/2021 3:24:20 PM: 
Create session shopee

9/3/2021 3:24:36 PM: 
Begin login shopee

9/3/2021 3:24:36 PM: 
Get account shopee

9/3/2021 3:24:37 PM: 
Không đăng nhập được vui lòng kiểm tra lại thông tin đăng nhập !.
{"bff_meta":null,"error":19,"error_msg":"NOT_LOGIN","data":null}

9/3/2021 4:04:52 PM: 
[-----------------------------Đăng nhập shopee ------------------------------]

9/3/2021 4:04:52 PM: 
Create session shopee

9/3/2021 4:05:08 PM: 
Begin login shopee

9/3/2021 4:05:09 PM: 
Get account shopee

9/3/2021 4:05:09 PM: 
Không đăng nhập được vui lòng kiểm tra lại thông tin đăng nhập !.
{"bff_meta":null,"error":19,"error_msg":"NOT_LOGIN","data":null}
